TikTok Lyrics
…
## # A tibble: 52 x 4
##    song       line lyric                                          artist      
##    <chr>     <int> <chr>                                          <chr>       
##  1 Wellerman     1 There once was a ship that put to sea          Nathan Evans
##  2 Wellerman     2 And the name of that ship was the Billy o' Tea Nathan Evans
##  3 Wellerman     3 The winds blew hard, her bow dipped down       Nathan Evans
##  4 Wellerman     4 Blow, me bully boys, blow (Huh!)               Nathan Evans
##  5 Wellerman     5 Soon may the Wellerman come                    Nathan Evans
##  6 Wellerman     6 To bring us sugar and tea and rum              Nathan Evans
##  7 Wellerman     7 One day, when the tonguin' is done             Nathan Evans
##  8 Wellerman     8 We'll take our leave and go                    Nathan Evans
##  9 Wellerman     9 She had not been two weeks from shore          Nathan Evans
## 10 Wellerman    10 When down on her, a right whale bore           Nathan Evans
## # … with 42 more rows

We call these stop words in text analysis. We have removed those, along with any profanity, from the song lyrics.

Then we “unnested” the lyrics so that instead of one lyric (line) in each row, we now have one word in each row.

## # A tibble: 126 x 4
##    song      word    line artist      
##    <chr>     <chr>  <int> <chr>       
##  1 Wellerman ship       1 Nathan Evans
##  2 Wellerman sea        1 Nathan Evans
##  3 Wellerman ship       2 Nathan Evans
##  4 Wellerman billy      2 Nathan Evans
##  5 Wellerman tea        2 Nathan Evans
##  6 Wellerman winds      3 Nathan Evans
##  7 Wellerman blew       3 Nathan Evans
##  8 Wellerman hard       3 Nathan Evans
##  9 Wellerman bow        3 Nathan Evans
## 10 Wellerman dipped     3 Nathan Evans
## # … with 116 more rows
…
What are the most frequently used words in the dataset?

Remember: The variables in the dataset are song, word, line, and artist.

lyric_words %>%
  count(___, sort = TRUE)

Function arguments

In the code below sort is an argument of the function count().

In the parentheses that follow functions, in addition to defining what to apply the function to, we can also define how to apply them, by setting options for the arguments.

## # A tibble: 460 x 2
##    word       n
##    <chr>  <int>
##  1 bored    119
##  2 house     41
##  3 na        41
##  4 love      39
##  5 la        24
##  6 savage    23
##  7 day       18
##  8 hey       18
##  9 nae       18
## 10 ayy       17
## # … with 450 more rows
…
